sim/test.vcd
$date
	Fri Mar 19 16:56:45 2021
$end

$version
	Synopsys VCS version O-2018.09-SP2-4_Full64
$end

$timescale
	1ps
$end

$comment Csum: 1 6e19e98982b1a8bb $end


$scope module farm_tb $end
$var reg 1 ! clk $end
$var reg 1 " rst_n $end
$var reg 2 # Extend [1:0] $end
$var reg 32 $ ra [31:0] $end
$var reg 32 % imem_data [31:0] $end
$var wire 32 & ins [31:0] $end
$var wire 32 ' ret_ad [31:0] $end
$var wire 32 ( imem_ad [31:0] $end

$scope task reset_alu $end
$upscope $end


$scope task init_imem $end
$upscope $end


$scope begin tester $end
$upscope $end


$scope module DUT $end
$var wire 1 ! clk $end
$var wire 1 " rst_n $end
$var wire 32 & ins [31:0] $end
$var wire 32 ' ret_ad [31:0] $end
$var wire 32 ) imem_data [31:0] $end
$var reg 32 * imem_ad [31:0] $end
$var reg 32 + imm [31:0] $end
$var reg 5 , ALU_op [4:0] $end
$var reg 32 - ra [31:0] $end
$var reg 32 . rb [31:0] $end
$var reg 32 / rz [31:0] $end
$var reg 32 0 rm [31:0] $end
$var reg 32 1 ry [31:0] $end
$var reg 2 2 y_sel [1:0] $end
$var wire 1 3 PC_sel $end
$var wire 1 4 PC_en $end
$var wire 1 5 INC_sel $end
$var wire 1 6 IR_en $end
$var wire 1 7 Mem_rd $end
$var wire 1 8 mfc $end
$var wire 1 9 RF_write $end
$var wire 1 : B_sel $end
$var wire 1 ; Mem_wr $end

$scope module farm_fetch $end
$var reg 32 & IR [31:0] $end
$var wire 1 ! clk $end
$var wire 1 " rst_n $end
$var wire 1 3 PC_sel $end
$var wire 1 4 PC_en $end
$var wire 1 5 INC_sel $end
$var wire 1 6 IR_en $end
$var wire 32 - ra [31:0] $end
$var wire 32 ) ins_mem [31:0] $end
$var wire 32 + branch_offset [31:0] $end
$var wire 32 * ins_ad [31:0] $end
$var wire 32 & ins [31:0] $end
$var wire 32 ' ret_ad [31:0] $end

$scope module iag $end
$var reg 32 * PC [31:0] $end
$var wire 1 ! clk $end
$var wire 1 " rst_n $end
$var wire 1 3 PC_sel $end
$var wire 1 4 PC_en $end
$var wire 1 5 INC_sel $end
$var wire 32 - ra [31:0] $end
$var wire 32 + branch_offset [31:0] $end
$var wire 32 ' ret_ad [31:0] $end
$var wire 32 * ins_ad [31:0] $end
$var reg 32 ' PC_temp [31:0] $end
$var wire 32 < muxPC_out [31:0] $end
$var wire 32 = muxInc_out [31:0] $end
$var wire 32 > add_out [31:0] $end
$upscope $end

$upscope $end


$scope module farm_pmi $end
$var reg 1 ! clk $end
$var reg 1 ? rst_n $end
$var reg 32 0 in_data [31:0] $end
$var reg 32 * address [31:0] $end
$var reg 1 7 mem_rd $end
$var reg 1 @ mem_wr $end
$var wire 32 ) data [31:0] $end
$var reg 1 8 mfc $end
$var reg 3 A state [2:0] $end
$var reg 1 B ins_rd $end

$scope module imem $end
$var wire 16 C address [15:0] $end
$var wire 32 ) data [31:0] $end
$var wire 1 B read $end
$var wire 1 D write $end

$scope task dump $end
$var reg 32 E low [31:0] $end
$var reg 32 F high [31:0] $end
$var integer 32 G i $end
$upscope $end

$upscope $end

$upscope $end


$scope module cg $end
$var reg 5 H state [4:0] $end
$var reg 1 ! clk $end
$var reg 1 ? rst_n $end
$var reg 1 8 mfc $end
$var reg 32 & ins [31:0] $end
$var reg 32 + imm [31:0] $end
$var reg 5 , ALU_op [4:0] $end
$var reg 1 3 PC_sel $end
$var reg 1 4 PC_en $end
$var reg 1 5 INC_sel $end
$var reg 1 6 IR_en $end
$var reg 1 9 RF_wr $end
$var reg 1 : B_sel $end
$var reg 1 7 Mem_rd $end
$var reg 1 ; Mem_wr $end
$var reg 2 2 Y_sel [1:0] $end
$var reg 1 I wmfc $end
$var wire 1 J Count_en $end
$var wire 7 K opcode [6:0] $end
$var wire 3 L funct3 [2:0] $end
$var wire 7 M funct7 [6:0] $end
$var wire 12 N imm12 [11:0] $end
$var reg 3 O Ins_t [2:0] $end
$var reg 1 P is_ld $end
$var reg 1 Q is_st $end
$var reg 1 R is_alu_add $end
$var wire 1 S is_alu_sub $end
$var wire 1 T is_alu_or $end
$var wire 1 U is_alu_xor $end
$var wire 1 V is_alu_and $end
$var wire 1 W is_alu_sll $end
$var wire 1 X is_alu_srl $end
$var wire 1 Y is_alu_sra $end
$var wire 1 Z is_alu_addi $end
$var wire 1 [ is_alu_andi $end
$var wire 1 \ is_alu_ori $end
$var wire 1 ] is_alu_xori $end
$var wire 1 ^ is_alu_lui $end
$upscope $end


$scope module farm_dec $end
$var wire 1 ! clk $end
$var wire 1 " rst_n $end
$var wire 1 9 RF_write $end
$var wire 32 & ins [31:0] $end
$var wire 32 / C [31:0] $end
$var reg 32 - A [31:0] $end
$var reg 32 . B [31:0] $end
$var wire 32 _ A_w [31:0] $end
$var wire 32 ` B_w [31:0] $end
$var wire 5 a rs1 [4:0] $end
$var wire 5 b rs2 [4:0] $end
$var wire 5 c rd [4:0] $end
$var wire 7 d opcode [6:0] $end
$var wire 3 e funct3 [2:0] $end
$var wire 7 f funct7 [6:0] $end

$scope module RF $end
$var wire 5 a Ad_A [4:0] $end
$var wire 5 b Ad_B [4:0] $end
$var wire 5 c Ad_C [4:0] $end
$var wire 32 _ A [31:0] $end
$var wire 32 ` B [31:0] $end
$var wire 32 / C [31:0] $end
$var wire 1 ! clk $end
$var wire 1 g RD $end
$var wire 1 " rst_n $end
$var wire 1 9 RF_write $end
$var integer 32 h i $end

$scope task dump $end
$var reg 5 i low [4:0] $end
$var reg 5 j high [4:0] $end
$var integer 32 k i $end
$upscope $end

$upscope $end

$upscope $end


$scope module farm_compute $end
$var wire 1 ! clk $end
$var wire 1 " rst_n $end
$var wire 32 - ra [31:0] $end
$var wire 32 . rb [31:0] $end
$var wire 32 + imm [31:0] $end
$var wire 5 , ALU_op [4:0] $end
$var wire 1 : B_sel $end
$var reg 32 / rz [31:0] $end
$var reg 32 0 rm [31:0] $end
$var wire 32 l muxB_out [31:0] $end
$var wire 32 m alu_out [31:0] $end

$scope module farm_alu $end
$var reg 32 - inA [31:0] $end
$var reg 32 n inB [31:0] $end
$var reg 32 m alu_out [31:0] $end
$var reg 5 , ALU_op [4:0] $end
$upscope $end

$upscope $end


$scope module farm_ma $end
$var reg 1 ! clk $end
$var reg 1 ? rst_n $end
$var reg 32 / rz [31:0] $end
$var reg 32 0 rm [31:0] $end
$var reg 2 2 Y_sel [1:0] $end
$var reg 32 o mem_data [31:0] $end
$var reg 32 ' ret_ad [31:0] $end
$var reg 32 0 mem_adr [31:0] $end
$var reg 32 1 ry [31:0] $end
$var reg 32 p muxY_out [31:0] $end

$scope module muxY $end
$var wire 128 q D [127:0] $end
$var wire 2 2 SEL [1:0] $end
$var reg 32 p Z [31:0] $end
$var reg 32 r tmp [31:0] $end
$var integer 32 s i $end
$upscope $end

$upscope $end

$upscope $end

$upscope $end


$scope module farm_pkg $end
$upscope $end

$enddefinitions $end

#0
$dumpvars
1J
zg
09
0:
05
06
07
0;
04
03
0!
x8
0B
xR
xZ
xV
x[
x^
xT
x\
xW
xY
xX
xS
xU
x]
xP
xQ
0"
0I
b00001 ,
bxxxxxxxxxxxxxxxxxxxxxxxxxxxxxxxx _
bxxxxxxxxxxxxxxxxxxxxxxxxxxxxxxxx `
b00000000000000000000000000000000xxxxxxxxxxxxxxxxxxxxxxxxxxxxxxxxxxxxxxxxxxxxxxxxxxxxxxxxxxxxxxxxxxxxxxxxxxxxxxxxxxxxxxxxxxxxxxxx q
bxxxxxxxxxxxxxxxxxxxxxxxxxxxxxxxx &
bxxx O
bxxxxxxxxxxxxxxxxxxxxxxxxxxxxxxxx *
bxxxxxxxxxxxxxxxxxxxxxxxxxxxxxxxx '
bxxxxx j
bxxxxxxxxxxxxxxxxxxxxxxxxxxxxxxxx k
bxxxxx i
bxxxxxxxxxxxxxxxxxxxxxxxxxxxxxxxx m
b00000000000000000000000000100000 s
b0xxxxxx M
b00000000000000000000000000100000 h
bxxxxxxxxxxxxxxxxxxxxxxxxxxxxxxxx )
bxxxxxxxxxxxxxxxxxxxxxxxxxxxxxxxx +
bxxxxxxxxxxxxxxxxxxxxxxxxxxxxxxxx n
bxxxxxxxxxxxxxxxxxxxxxxxxxxxxxxxx <
b00000000000000000000000000000000 p
bxxxxxxx K
bxxxxxxxxxxxxxxxxxxxxxxxxxxxxxxxx -
bxxxxxxxxxxxxxxxxxxxxxxxxxxxxxxxx .
bxxxxxxxxxxxxxxxxxxxxxxxxxxxxxxxx 0
bxxxxxxxxxxxxxxxxxxxxxxxxxxxxxxxx 1
bxxxxxxxxxxxxxxxxxxxxxxxxxxxxxxxx /
bxxxxx H
bxxxxxxxxxxxxxxxxxxxxxxxxxxxxxxxx =
bxxxxx a
bxxxxx b
bxxxxx c
bxxxxxxxxxxxxxxxxxxxxxxxxxxxxxxxx l
bxxxxxxxxxxxxxxxxxxxxxxxxxxxxxxxx >
bxxx L
bxxxxxxxxxxxx N
bxxxxxxxxxxxxxxxx C
b00000000000000000000000000000000 r
b11 2
bxxxxxxxxxxxxxxxxxxxxxxxxxxxxxxxx o
bzzzzzzz f
bzzz e
bzzzzzzz d
bxxxxxxxxxxxxxxxxxxxxxxxxxxxxxxxx G
bxxxxxxxxxxxxxxxxxxxxxxxxxxxxxxxx F
bxxxxxxxxxxxxxxxxxxxxxxxxxxxxxxxx E
0D
bxxx A
0@
bzzzzzzzzzzzzzzzzzzzzzzzzzzzzzzzz (
bxxxxxxxxxxxxxxxxxxxxxxxxxxxxxxxx %
bxxxxxxxxxxxxxxxxxxxxxxxxxxxxxxxx $
bxx #
0?
$end
b00000000000000000000000000000100 =
b0000000000xx N
#2000
bzzzzzzzzzzzzzzzzzzzzzzzzzzzzzzzz )
#3000
08
b00000 H
#10000
1!
b00000000000000000000000000000000 /
b00000000000000000000000000000000 0
b00000000000000000000000000000000xxxxxxxxxxxxxxxxxxxxxxxxxxxxxxxxxxxxxxxxxxxxxxxxxxxxxxxxxxxxxxxx00000000000000000000000000000000 q
#13000
b00000000000000000000000000000000 *
b00000000000000000000000000000100 >
b0000000000000000 C
b00000000000000000000000000000000 -
b00000000000000000000000000000000 .
b00000000000000000000000000000000 l
b00000000000000000000000000000000 1
b00000000000000000000000000000000 &
b00000 a
b00000 b
b00000 c
b000 L
b000000000000 N
b0000000 M
0\
0]
0[
b00000000000000000000000000000000 _
b00000000000000000000000000000000 `
b0000000 K
0P
0Q
0^
b00000000000000000000000000000000 <
b00000000000000000000000000000000 n
0X
0W
0V
0U
0T
0Y
0S
b000 O
0Z
b00000000000000000000000000000000 +
b00000000000000000000000000000000 m
b00 2
1R
b00000 ,
#20000
0!
#30000
1!
1"
1?
#33000
b00000000000000000000000000000000 '
b0000000000000000000000000000000000000000000000000000000000000000xxxxxxxxxxxxxxxxxxxxxxxxxxxxxxxx00000000000000000000000000000000 q
#40000
0!
#50000
1!
#53000
b00001 H
13
14
16
17
1B
1I
b00000000000000000000000000000100 <
0J
#55000
b00110001001000000000001010010011 )
#56000
18
1J
#60000
0!
#70000
1!
#73000
b00010 H
b00000000000000000000000000000100 *
b00000000000000000000000000001000 >
b0000000000000001 C
b00110001001000000000001010010011 &
b10010 b
b00101 c
b000000000010 N
b0001100 M
b0010011 K
03
04
06
07
0B
0I
b00000000000000000000000000000000 <
0R
b001 O
1Z
b00000000000000000000001100010010 +
1:
b00000000000000000000001100010010 l
b00000000000000000000001100010010 n
b00000000000000000000001100010010 m
#75000
bzzzzzzzzzzzzzzzzzzzzzzzzzzzzzzzz )
#76000
08
#80000
0!
#90000
1!
#93000
b00100 H
b00000000000000000000000000000100 '
b00000000000000000000001100010010 /
15
b00000000000000000000001100010010 =
b00000000000000000000001100010110 >
b0000000000000000000000000000000000000000000000000000000000000100xxxxxxxxxxxxxxxxxxxxxxxxxxxxxxxx00000000000000000000001100010010 q
b00000000000000000000001100010010 r
b00000000000000000000001100010010 p
#100000
0!
#110000
1!
#113000
b01000 H
b00000000000000000000001100010010 1
05
b00000000000000000000000000000100 =
b00000000000000000000000000001000 >
#120000
0!
#130000
1!
#133000
b10000 H
19
#140000
0!
#150000
1!
#153000
b00001 H
13
14
16
09
17
1B
1I
b00000000000000000000000000001000 <
0J
#155000
b00000000110000000000001100010011 )
#156000
18
1J
#160000
0!
#170000
1!
#173000
b00010 H
b00000000000000000000000000001000 *
b00000000000000000000000000001100 >
b0000000000000010 C
b00000000110000000000001100010011 &
b01100 b
b00110 c
b000000000000 N
b0000000 M
03
04
06
07
0B
0I
b00000000000000000000000000000000 <
b00000000000000000000000000001100 +
b00000000000000000000000000001100 l
b00000000000000000000000000001100 n
b00000000000000000000000000001100 m
#175000
bzzzzzzzzzzzzzzzzzzzzzzzzzzzzzzzz )
#176000
08
#180000
0!
#190000
1!
#193000
b00100 H
b00000000000000000000000000001000 '
b00000000000000000000000000001100 /
15
b00000000000000000000000000001100 =
b00000000000000000000000000010100 >
b0000000000000000000000000000000000000000000000000000000000001000xxxxxxxxxxxxxxxxxxxxxxxxxxxxxxxx00000000000000000000000000001100 q
b00000000000000000000000000001100 r
b00000000000000000000000000001100 p
#200000
0!
#210000
1!
#213000
b01000 H
b00000000000000000000000000001100 1
05
b00000000000000000000000000000100 =
b00000000000000000000000000001100 >
#220000
0!
#230000
1!
#233000
b10000 H
19
#240000
0!
#250000
1!
#253000
b00001 H
13
14
16
09
17
1B
1I
b00000000000000000000000000001100 <
0J
#255000
b00000000011000101000001110110011 )
#256000
18
1J
#260000
0!
#270000
1!
#273000
b00010 H
b00000000000000000000000000001100 *
b00000000000000000000000000010000 >
b0000000000000011 C
b00000000011000101000001110110011 &
b00101 a
b00110 b
b00111 c
b000000000010 N
b00000000000000000000001100010010 _
b00000000000000000000000000001100 `
b0110011 K
03
04
06
07
0B
0I
b00000000000000000000000000000000 <
b000 O
0Z
b00000000000000000000000000000000 +
b00000000000000000000000000000000 l
0:
b00001 ,
1R
b00000000000000000000000000000000 n
b00000000000000000000000000000000 m
b00000 ,
#275000
bzzzzzzzzzzzzzzzzzzzzzzzzzzzzzzzz )
#276000
08
#280000
0!
#290000
1!
#293000
b00100 H
b00000000000000000000000000001100 '
b00000000000000000000001100010010 -
b00000000000000000000000000001100 .
b00000000000000000000000000001100 l
b00000000000000000000000000000000 /
15
b00000000000000000000000000000000 =
b00000000000000000000000000001100 >
b0000000000000000000000000000000000000000000000000000000000001100xxxxxxxxxxxxxxxxxxxxxxxxxxxxxxxx00000000000000000000000000000000 q
b00000000000000000000001100010010 m
b00000000000000000000001100010010 <
b00000000000000000000000000001100 n
b00000000000000000000000000000000 r
b00000000000000000000000000000000 p
b00000000000000000000001100011110 m
#300000
0!
#310000
1!
#313000
b01000 H
b00000000000000000000001100011110 /
b00000000000000000000000000001100 0
b00000000000000000000000000000000 1
05
b00000000000000000000000000000100 =
b00000000000000000000000000010000 >
b0000000000000000000000000000000000000000000000000000000000001100xxxxxxxxxxxxxxxxxxxxxxxxxxxxxxxx00000000000000000000001100011110 q
b00000000000000000000001100011110 r
b00000000000000000000001100011110 p
#320000
0!
#330000
1!
#333000
b10000 H
b00000000000000000000001100011110 1
19
#340000
0!
#350000
1!
#353000
b00001 H
13
14
16
09
17
1B
1I
b00000000000000000000000000010000 <
0J
#355000
b01000000011000111000001110110011 )
#356000
18
1J
#360000
0!
#370000
1!
#373000
b00010 H
b00000000000000000000000000010000 *
b00000000000000000000000000010100 >
b0000000000000100 C
b01000000011000111000001110110011 &
b00111 a
b0010000 M
b00000000000000000000001100011110 _
03
04
06
07
0B
0I
b00000000000000000000001100010010 <
0R
b00001 ,
b00000000000000000000001100000110 m
#375000
bzzzzzzzzzzzzzzzzzzzzzzzzzzzzzzzz )
#376000
08
#380000
0!
#390000
1!
#393000
b00100 H
b00000000000000000000000000010000 '
b00000000000000000000001100011110 -
b00000000000000000000001100000110 /
15
b00000000000000000000000000000000 =
b00000000000000000000000000010000 >
b0000000000000000000000000000000000000000000000000000000000010000xxxxxxxxxxxxxxxxxxxxxxxxxxxxxxxx00000000000000000000001100000110 q
b00000000000000000000001100010010 m
b00000000000000000000001100011110 <
b00000000000000000000001100000110 r
b00000000000000000000001100000110 p
#400000
0!
#410000
1!
#413000
b01000 H
b00000000000000000000001100010010 /
b00000000000000000000001100000110 1
05
b00000000000000000000000000000100 =
b00000000000000000000000000010100 >
b0000000000000000000000000000000000000000000000000000000000010000xxxxxxxxxxxxxxxxxxxxxxxxxxxxxxxx00000000000000000000001100010010 q
b00000000000000000000001100010010 r
b00000000000000000000001100010010 p
#420000
0!
#430000
1!
#433000
b10000 H
b00000000000000000000001100010010 1
19
#440000
0!
#450000
1!
#453000
b00001 H
13
14
16
09
17
1B
1I
b00000000000000000000001100010010 _
b00000000000000000000000000010100 <
0J
#455000
b10000000000000000000010000110111 )
#456000
18
1J
#460000
0!
#470000
1!
#473000
b00010 H
b00000000000000000000000000010100 *
b00000000000000000000000000011000 >
b0000000000000101 C
b00000000000000000000001100010010 -
b10000000000000000000010000110111 &
b00000 a
b00000 b
b01000 c
b000000000000 N
b0100000 M
b00000000000000000000000000000000 _
b00000000000000000000000000000000 `
b0110111 K
1^
03
04
06
07
0B
0I
b00000000000000000000001100010010 <
b00000000000000000000001100000110 m
1S
b110 O
b10000000000000000000000000000000 +
1:
b10000000000000000000000000000000 l
0S
b10000000000000000000000000000000 n
b01000 ,
b10000000000000000000000000000000 m
#475000
bzzzzzzzzzzzzzzzzzzzzzzzzzzzzzzzz )
#476000
08
#480000
0!
#490000
1!
#493000
b00100 H
b00000000000000000000000000010100 '
b00000000000000000000000000000000 -
b00000000000000000000000000000000 .
b10000000000000000000000000000000 /
15
b10000000000000000000000000000000 =
b10000000000000000000000000010100 >
b0000000000000000000000000000000000000000000000000000000000010100xxxxxxxxxxxxxxxxxxxxxxxxxxxxxxxx10000000000000000000000000000000 q
b00000000000000000000000000000000 <
b10000000000000000000000000000000 r
b10000000000000000000000000000000 p
#500000
0!
#510000
1!
#513000
b01000 H
b00000000000000000000000000000000 0
b10000000000000000000000000000000 1
05
b00000000000000000000000000000100 =
b00000000000000000000000000011000 >
#520000
0!
#530000
1!
#533000
b10000 H
19
#540000
0!
#550000
1!
#553000
b00001 H
13
14
16
09
17
1B
1I
b00000000000000000000000000011000 <
0J
#555000
b00000000010101000010011000100011 )
#556000
18
1J
#560000
0!
#570000
1!
#573000
b00010 H
b00000000000000000000000000011000 *
b00000000000000000000000000011100 >
b0000000000000110 C
b00000000010101000010011000100011 &
b01000 a
b00101 b
b01100 c
b010 L
b000000000001 N
b0000000 M
b10000000000000000000000000000000 _
b00000000000000000000001100010010 `
b0100011 K
1Q
0^
03
04
06
07
0B
0I
b00000000000000000000000000000000 <
b100 O
b00000 ,
b00000000000000000000000000001100 +
b00000000000000000000000000001100 l
0:
b00000000000000000000000000000000 l
b11 2
b00000000000000000000000000000000 n
b00000000000000000000000000000000 r
b00000000000000000000000000000000 p
b00000000000000000000000000000000 m
#575000
bzzzzzzzzzzzzzzzzzzzzzzzzzzzzzzzz )
#576000
08
#580000
b00000 i
b01010 j
b00000000000000000000000000000000 k
b00000000000000000000000000000001 k
b00000000000000000000000000000010 k
b00000000000000000000000000000011 k
b00000000000000000000000000000100 k
b00000000000000000000000000000101 k
b00000000000000000000000000000110 k
b00000000000000000000000000000111 k
b00000000000000000000000000001000 k
b00000000000000000000000000001001 k
b00000000000000000000000000001010 k
b00000000000000000000000000001011 k
